Ağaç Bazlı Yöntemler: R Uygulamaları
…
Q

Çıktı değişkenini oluştur:

titanic_tree_data <- titanic %>%
  mutate(Survived = if_else(Survived == 1, "Survived", "Died"),
         Survived = as.factor(Survived),
         Sex = as.factor(Sex))
titanic_tree_data

## # A tibble: 891 × 12
##    PassengerId Survived Pclass Name   Sex     Age SibSp Parch Ticket  Fare Cabin
##          <int> <fct>     <int> <chr>  <fct> <dbl> <int> <int> <chr>  <dbl> <chr>
##  1           1 Died          3 Braun… male     22     1     0 A/5 2…  7.25 ""   
##  2           2 Survived      1 Cumin… fema…    38     1     0 PC 17… 71.3  "C85"
##  3           3 Survived      3 Heikk… fema…    26     0     0 STON/…  7.92 ""   
##  4           4 Survived      1 Futre… fema…    35     1     0 113803 53.1  "C12…
##  5           5 Died          3 Allen… male     35     0     0 373450  8.05 ""   
##  6           6 Died          3 Moran… male     NA     0     0 330877  8.46 ""   
##  7           7 Died          1 McCar… male     54     0     0 17463  51.9  "E46"
##  8           8 Died          3 Palss… male      2     3     1 349909 21.1  ""   
##  9           9 Survived      3 Johns… fema…    27     0     2 347742 11.1  ""   
## 10          10 Survived      2 Nasse… fema…    14     1     0 237736 30.1  ""   
## # ℹ 881 more rows
## # ℹ 1 more variable: Embarked <chr>
…
## [1] 0.1829405

Hata oranı daha da düştü, %18.3.

Şimdi caret paketini kullanarak bir rassal orman tahmin
edelim. Bunun için caret::train() fonksiyonunu
kullanacağız:

# drop the NA obs.
titanic_rf_data <- titanic_tree_full_data %>%
  select(Survived, Pclass, Sex, Age, SibSp, Parch, Fare, Embarked) %>%
  drop_na()
titanic_rf_data

## # A tibble: 714 × 8
##    Survived Pclass Sex      Age SibSp Parch  Fare Embarked
##    <fct>     <int> <fct>  <dbl> <int> <int> <dbl> <fct>   
##  1 Died          3 male      22     1     0  7.25 S       
##  2 Survived      1 female    38     1     0 71.3  C       
##  3 Survived      3 female    26     0     0  7.92 S       
##  4 Survived      1 female    35     1     0 53.1  S       
##  5 Died          3 male      35     0     0  8.05 S       
##  6 Died          1 male      54     0     0 51.9  S       
##  7 Died          3 male       2     3     1 21.1  S       
##  8 Survived      3 female    27     0     2 11.1  S       
##  9 Survived      2 female    14     1     0 30.1  C       
## 10 Survived      3 female     4     1     1 16.7  S       
## # ℹ 704 more rows
…
